model_id,cpu,screen_size,resolution,ram,os,type,hd_size,manuf_id
634,1198,21,728,66,Chatterbridge,Felodipine,1182,191
731,759,114,734,101,Devshare,ECOSAVE LAVENDER ANTIBACTERIAL HAND SOAP,908,12
728,729,91,570,175,Bubblemix,Prednisone,1651,156
756,713,131,546,155,Lazzy,Stool Softener Plus Stimulant Laxative,2364,135
670,1855,133,598,77,Skipstorm,Cesium Chloride,754,114
633,714,93,629,100,Viva,equate ibuprofen,1465,82
764,802,87,652,99,Cogibox,Meijer Enema,2263,115
671,1678,128,621,167,Devpoint,AQUAFRESH,1031,36
797,1381,23,521,97,Meevee,DANDRUFF SHAMPOO,1230,51
676,1495,116,713,145,Dynabox,ARTISS,1911,58
765,503,146,514,109,Fivebridge,Ondansetron,2117,82
608,838,113,707,70,Aimbu,Mozobil,1981,143
637,1219,68,560,200,Voonyx,Morphine sulfate,1966,69
723,1875,47,432,180,Linkbridge,NovoSeven,1791,45
773,968,129,570,161,Linklinks,Guinea Pig Epithelium,896,128
739,1136,117,788,170,Twitterlist,Hi Vetic,1403,1
786,1769,81,638,193,Riffwire,7 Select Sleep Aid,1780,78
611,1528,41,443,169,Zoomzone,simvastatin,2228,174
783,1716,22,458,106,Livefish,Phentermine Hydrochloride,1604,12
798,1679,113,791,110,Jaxspan,CardioGen-82,1650,94
660,1466,94,628,139,Kwilith,Prednisone,1727,91
711,1370,89,542,143,Flashpoint,ITCHY SKIN ERRUPTIONS,2183,159
722,703,43,518,97,Kayveo,Teacher Collection Anti Bacterial,1974,163
743,1660,107,482,73,Oyope,Sertraline Hydrochloride,1763,89
756,970,133,704,194,Voonix,GENTAMICIN SULFATE,2430,116
755,1353,97,618,156,Gigabox,Lamotrigine,920,2
640,1208,135,596,110,Bubbletube,Nu Skin Clear Action,1214,24
650,1081,38,635,161,Jabbersphere,Montelukast Sodium,789,189
727,1757,51,712,194,Twitterbridge,TERUFLEX Blood Bag System Anticoagulant Citrate Phosphate Dextrose Adenine (CPDA-1),910,2
755,1561,136,771,115,Jazzy,SHISEIDO BENEFIANCE WRINKLERESIST24 DAY,1739,121
668,1151,50,479,76,Wikibox,Smart Sense Acid Reducer,1949,119
763,1099,97,528,130,Plambee,Terragen HG Treatment,1354,120
613,1307,77,553,171,Jabbertype,wal tussin cf,2107,143
783,1050,115,552,106,Edgepulse,Ampicillin and Sulbactam,2225,151
753,1366,136,737,73,Skynoodle,pioglitazone hydrochloride,2017,65
656,816,70,573,145,Zooveo,ESIKA,1983,183
799,1909,62,776,84,Centimia,Rifabutin,1658,128
720,628,131,598,181,Rhyloo,Female Tonic,1908,130
798,1239,69,765,70,Tekfly,Leucovorin Calcium,2084,60
674,1649,114,764,160,Devpoint,ATORVASTATIN CALCIUM,1438,114
604,1554,102,676,152,Trudeo,Skin Eruptions,1167,99
629,1439,126,580,149,Skiptube,JUNIPERUS ASHEI POLLEN,2317,21
663,1620,149,700,121,Twinte,Triple Complex Calm Tonic,1010,139
769,1271,29,462,169,Lazz,Skin Balancing Makeup Broad Spectrum SPF 20,851,117
634,1415,102,488,190,Gevee,ALMACONE DOUBLE STRENGTH,2432,159
649,864,145,492,200,Topicstorm,CYZONE,816,163
668,1348,32,514,179,Devpulse,Tramadol Hydrochloride and Acetaminophen,1218,95
776,665,34,784,118,Innojam,CAFFEINE CITRATE,2214,140
682,1037,124,797,56,Brainlounge,Aveeno Active Naturals Skin Relief Healing,829,49
629,1326,128,641,118,Tavu,Naturasil,2437,60
629,1484,117,716,123,Babbleset,Up and Up anti diarrheal,1084,191
664,995,141,632,145,Yombu,Heparin Sodium,759,196
633,547,150,568,198,Aibox,DawMist Antiperspirant Deodorant,2399,161
723,505,103,771,101,Pixope,SHISEIDO THE MAKEUP SHEER MATIFYING COMPACT (REFILL),833,176
684,774,53,709,88,Fiveclub,XtraCare Wet Wipes,766,13
618,562,30,414,196,Divanoodle,Hydroxyzine Pamoate,1066,183
765,1285,27,548,121,Meembee,Dimenhydrinate,1700,121
716,1213,63,710,81,Oodoo,Excedrin,1573,73
670,1457,141,575,186,Edgeclub,Acyclovir,1533,50
728,1430,46,706,103,Jabberbean,Pink Peony Antibacterial Foaming Hand Wash,1592,135
619,1072,33,445,76,Twitterbeat,nicorelief,1973,179
738,566,33,762,165,Realcube,Zoledronic acid,2332,78
666,729,104,558,125,Gabcube,DOXEPIN HYDROCHLORIDE,1589,76
753,586,133,488,125,Photojam,METHIMAZOLE,1259,115
743,1365,49,572,187,Meevee,Repronex,978,61
743,1850,96,405,189,Talane,Metformin Hydrochloride,1495,48
732,511,65,532,126,Browsecat,Exforge,1442,184
744,1499,125,625,59,Yabox,Glipizide,1414,191
690,889,47,410,111,Leexo,Shopko Antibacterial Foaming Hand Sanitizer,1333,118
607,583,24,635,73,Feedspan,Neutrogena Men Age Fighter Moisturizer,926,52
677,1893,54,767,134,Trilia,flu and severe cold and cough,1971,184
645,1995,60,573,191,Photobug,Purminerals 4-in-1 Mineral Tinted Moisturizer Broad Spectrum SPF 20 (LIGHT),2282,58
712,1011,79,798,114,Shufflester,Flu Care,1772,45
778,1097,130,643,64,Kwimbee,Omeprazole,1332,5
639,1007,130,407,61,Twitterlist,Zovirax,1124,141
709,622,48,675,198,Zazio,Ceftriaxone,879,193
687,1578,34,746,96,Jayo,flu and severe cold and cough,994,91
612,1428,145,773,156,Twimm,Trandate,1068,110
626,637,33,496,195,Oloo,SPF30 SUMMER BLEND SUNSCREEN,809,94
751,1385,89,531,89,Bluejam,nizatidine,1892,160
654,519,149,594,189,Oyoyo,LE TECHNIQ,1854,6
660,1732,60,734,125,Npath,Male Libido,2208,27
700,612,133,563,99,Linktype,RED ORANGE JELLY BB,2156,107
733,1927,134,733,111,Ooba,Xanax,991,73
774,1665,31,598,188,Dabvine,Nifedipine,2487,176
612,672,81,718,83,Mymm,Cardene,1769,77
639,716,111,619,131,Oloo,SHISEIDO SHEER MATIFYING COMPACT (REFILL),2004,151
651,1343,51,483,184,Zoozzy,Pantoprazole Sodium,1107,20
623,1330,142,604,168,Oyope,Pacific,1494,132
755,567,51,494,144,Brainbox,MISSHA M SWIRL BB SUN BALM,2361,2
708,1705,23,585,114,Linklinks,Climate Adaptation Cold and Damp,2330,126
709,553,76,517,91,Buzzdog,Lip Smacker SPF Cherry Berry Ball,2130,114
789,1651,43,608,112,Blognation,Theophylline,946,167
780,841,70,772,189,Innojam,retaine PM,1493,25
644,1499,80,770,60,Midel,BUPROPION HYDROCHLORIDE,1610,72
746,1097,69,423,78,Bluezoom,Banophen,2003,33
729,852,39,418,192,Buzzdog,ATENOLOL,1965,85
669,852,54,698,107,Voonyx,Aspergillus niger,2309,93
677,1857,58,491,190,Lazzy,Nevirapine,1647,57
690,1508,31,613,177,Roombo,Clonazepam,1860,161
