serial_number,person_id,dept_id,room_id,rack_id
5556078920,101,1,64,167
6652275511,102,2,43,179
6442369463,103,3,59,146
8548992468,104,4,44,182
4593678501,105,5,33,145
3779998963,106,6,77,110
3479676189,107,7,97,110
7991457591,108,8,34,193
9156923740,109,9,59,102
2977961119,110,10,38,164
5214262272,111,11,85,101
5420681706,112,12,74,117
2311376411,113,13,95,162
4640163908,114,14,56,195
7589693995,115,15,38,110
357209575,116,16,66,180
8847627834,117,17,28,119
4322357121,118,18,74,154
2024957471,119,19,87,194
7223063653,120,20,23,154
3879444803,121,21,85,140
471549355,122,22,98,169
2039483683,123,23,65,104
6837689134,124,24,69,126
3409563113,125,25,72,165
9732276959,126,26,50,153
4816129464,127,27,50,170
9918685603,128,28,91,169
7556839869,129,29,63,147
8055372829,130,30,90,103
15679942,131,31,36,110
6566380655,132,32,62,190
3093144183,133,33,54,190
2400194343,134,34,65,107
4765793060,135,35,81,158
2593671173,136,36,76,145
2572462303,137,37,46,167
971749434,138,38,75,145
1164122924,139,39,93,191
2066645737,140,40,59,119
2800277165,141,41,34,139
9258671880,142,42,99,163
9305121454,143,43,24,113
7766259001,144,44,49,108
6008223470,145,45,32,137
3070141625,146,46,67,173
7015744074,147,47,44,169
6768659642,148,48,36,114
2741548323,149,49,34,104
8512163798,150,50,48,155
1748849328,151,51,65,137
1891276042,152,52,46,185
9676179647,153,53,97,144
9194709955,154,54,50,112
7869439886,155,55,44,190
9978925058,156,56,30,147
5782288566,157,57,61,188
6080164221,158,58,82,194
7830647976,159,59,83,132
9499104291,160,60,24,150
6283242871,161,61,82,171
5230606975,162,62,86,109
127854541,163,63,47,156
750481358,164,64,68,107
5789447228,165,65,49,140
3014939013,166,66,29,161
7206009913,167,67,40,141
8885470793,168,68,59,127
9950543320,169,69,76,107
6532604240,170,70,46,142
73223336,171,71,42,159
7636405660,172,72,36,135
1513347632,173,73,24,146
7478929915,174,74,36,146
9260581915,175,75,41,163
9998383048,176,76,37,134
7310918835,177,77,83,187
9751984017,178,78,53,182
1511035099,179,79,86,199
8469005855,180,80,80,159
406220050,181,81,99,184
4415565859,182,82,26,119
3251424688,183,83,95,171
1740076168,184,84,70,106
4124988680,185,85,58,201
269145893,186,86,69,196
2852171864,187,87,91,104
4192263920,188,88,70,123
4765158179,189,89,76,161
9721900605,190,90,32,150
1483027805,191,91,22,132
6093276147,192,92,50,187
1303044897,193,93,40,180
5506958544,194,94,29,163
8263090652,195,95,46,201
8389377500,196,96,49,191
1312239220,197,97,66,152
2240052600,198,98,32,110
4012167499,199,99,59,123
8511987479,200,100,99,199
