model_id,double_sided,paper_size,memory,speed,laser,color,manuf_id
1,1,13,1,43,0,0,13
2,0,5,2,41,1,0,8
3,0,16,3,39,0,1,99
4,1,2,2,37,0,0,86
5,0,15,3,26,0,0,94
6,0,14,1,37,0,1,19
7,0,12,1,22,0,0,7
8,0,1,3,36,0,1,38
9,0,15,1,42,1,0,36
10,0,2,2,31,1,0,92
11,0,9,3,34,0,0,58
12,0,8,3,20,0,1,13
13,1,12,1,40,0,0,14
14,1,12,3,58,0,0,47
15,1,18,1,44,0,0,39
16,1,6,2,31,1,1,58
17,1,10,1,52,0,1,21
18,0,2,3,51,1,0,7
19,0,19,1,46,0,0,26
20,0,16,2,52,1,1,65
21,0,5,3,27,0,0,50
22,0,20,2,56,0,1,53
23,0,9,2,22,0,1,34
24,1,13,1,27,1,1,44
25,0,18,3,26,1,0,75
26,1,15,1,42,0,0,88
27,1,6,1,51,1,0,95
28,0,8,2,44,1,1,97
29,1,16,2,57,1,1,100
30,1,3,1,55,1,1,16
31,1,7,1,54,1,0,60
32,1,4,2,27,0,1,90
33,1,7,2,57,1,1,97
34,0,7,3,53,0,1,52
35,1,1,3,54,0,0,12
36,0,7,1,36,1,1,85
37,1,12,3,44,0,1,52
38,1,18,1,21,1,0,39
39,1,5,2,35,1,1,65
40,0,9,3,58,1,0,55
41,0,7,1,50,1,1,12
42,1,5,2,36,0,1,13
43,0,7,1,46,1,0,86
44,0,18,2,54,1,1,32
45,0,8,2,45,1,0,67
46,1,9,1,23,1,1,19
47,0,5,2,22,0,1,13
48,0,8,3,52,1,0,9
49,1,12,1,40,1,0,18
50,1,4,2,54,1,0,12
51,0,9,3,34,0,0,36
52,0,10,1,51,1,0,24
53,1,5,2,20,0,0,56
54,0,19,2,45,0,1,1
55,0,4,1,52,1,1,34
56,0,2,3,32,1,0,79
57,1,6,2,36,1,1,30
58,1,12,1,36,1,0,57
59,0,1,2,26,0,0,47
60,1,3,1,33,1,1,9
61,1,11,2,47,0,1,29
62,1,1,1,43,0,1,90
63,1,5,2,56,1,1,8
64,1,9,1,35,1,0,74
65,0,17,3,20,1,0,47
66,0,12,3,26,1,0,37
67,1,7,1,28,0,1,57
68,0,10,2,43,0,0,53
69,1,14,3,29,1,1,39
70,1,8,1,55,1,1,19
71,0,2,2,21,1,0,66
72,1,5,1,43,1,0,83
73,0,17,2,30,1,0,63
74,1,16,3,46,0,1,49
75,0,1,2,51,1,1,45
76,0,3,3,23,0,0,56
77,0,17,1,47,0,1,17
78,0,1,1,52,1,1,98
79,0,15,2,33,0,1,79
80,1,6,2,44,0,0,53
81,1,1,1,30,0,0,19
82,0,5,2,51,0,1,67
83,0,6,3,50,0,0,97
84,0,17,1,59,1,1,80
85,0,15,1,30,1,1,31
86,0,3,3,31,0,1,45
87,0,9,1,25,0,1,66
88,0,14,3,48,1,1,91
89,0,10,1,46,0,1,12
90,1,2,3,31,1,0,8
91,1,12,1,29,1,1,19
92,1,8,1,24,0,1,60
93,1,14,1,60,0,0,6
94,1,1,3,24,1,1,50
95,1,6,2,41,1,1,71
96,0,6,3,39,0,0,21
97,1,20,2,42,1,1,16
98,0,7,2,42,1,0,63
99,0,6,3,45,0,0,58
100,1,18,2,30,1,1,92
101,1,15,3,41,1,0,34
102,0,8,1,55,1,0,40
103,1,18,2,26,1,0,34
104,1,14,2,54,0,0,83
105,0,9,3,46,0,1,10
106,1,12,2,53,1,1,52
107,1,5,3,59,1,1,80
108,0,16,1,25,0,0,1
109,1,3,2,41,1,0,52
110,0,5,1,31,0,0,44
111,1,14,3,39,1,0,65
112,1,19,1,58,1,0,42
113,1,2,2,37,0,1,24
114,0,14,1,25,1,0,58
115,0,20,1,52,1,0,50
116,0,2,1,23,0,1,10
117,0,4,1,21,1,0,29
118,1,12,1,37,1,0,39
119,1,14,1,42,0,0,45
120,1,16,3,53,0,0,78
121,0,14,3,48,1,1,76
122,0,11,3,25,1,1,78
123,0,16,1,43,1,0,13
124,0,18,3,44,1,0,79
125,0,7,1,48,1,0,23
126,1,3,1,41,1,1,51
127,1,10,2,57,1,1,60
128,0,8,2,23,1,0,27
129,1,12,2,54,1,1,100
130,0,20,1,57,0,1,71
131,0,16,1,59,0,0,88
132,1,6,2,39,1,0,12
133,1,10,1,54,1,1,35
134,1,1,2,52,0,0,91
135,1,12,2,36,1,0,94
136,0,18,1,50,1,0,41
137,0,17,1,47,0,1,25
138,0,13,3,37,0,1,99
139,1,6,1,39,0,0,47
140,0,3,3,36,1,1,79
141,0,19,2,21,1,1,33
142,0,18,1,46,1,1,7
143,1,13,1,60,1,0,46
144,1,1,3,53,0,1,97
145,1,8,2,33,1,1,44
146,1,1,1,28,1,0,73
147,0,9,3,39,0,0,63
148,1,5,2,42,0,1,26
149,0,1,1,42,0,1,68
150,0,11,2,27,0,0,4
151,0,7,3,30,0,1,95
152,1,6,1,36,0,0,77
153,1,4,1,23,0,1,7
154,1,11,3,49,0,0,32
155,0,13,3,39,0,1,27
156,0,17,3,37,0,0,84
157,0,11,3,58,0,1,31
158,0,17,2,34,0,0,40
159,1,15,2,39,1,0,55
160,1,8,1,58,0,0,85
161,1,20,3,46,0,0,29
162,1,17,2,27,0,0,54
163,0,10,3,39,0,1,54
164,0,9,3,44,0,1,7
165,0,13,3,49,1,0,36
166,0,4,3,42,1,0,78
167,0,17,3,56,0,0,7
168,0,1,1,26,0,1,94
169,0,10,3,23,1,0,49
170,1,15,3,45,1,0,88
171,0,4,1,26,0,1,28
172,1,6,2,46,1,1,31
173,0,6,2,20,1,1,81
174,1,10,2,29,0,0,12
175,1,19,3,29,0,0,30
176,0,14,2,22,1,0,32
177,0,13,2,52,1,0,76
178,0,9,1,50,1,1,28
179,0,6,1,58,1,0,58
180,0,2,1,58,1,0,15
181,0,20,3,44,1,1,20
182,1,11,3,45,0,0,34
183,0,1,1,22,1,0,27
184,0,1,3,21,1,1,47
185,1,3,3,28,0,0,29
186,0,7,2,52,1,0,63
187,1,5,2,36,1,1,62
188,0,2,1,37,1,1,67
189,0,19,2,55,1,1,86
190,0,19,2,50,1,1,94
191,0,15,3,49,1,1,40
192,0,2,1,28,1,1,82
193,0,19,1,28,0,0,100
194,0,13,3,31,1,0,91
195,0,11,1,45,0,0,57
196,0,11,3,39,1,0,26
197,1,10,1,26,1,0,56
198,0,12,3,35,0,1,62
199,0,5,1,36,1,0,56
200,0,6,2,47,1,1,62
201,0,14,1,47,1,0,27
202,1,20,3,20,1,1,55
203,0,20,1,54,1,0,21
204,1,13,2,42,1,1,90
205,1,16,2,22,1,0,82
206,1,4,3,23,0,0,30
207,0,15,3,44,1,1,21
208,1,19,2,22,1,1,2
209,1,9,2,53,0,0,17
210,1,18,1,56,0,1,90
211,1,9,3,52,0,1,12
212,1,11,1,32,1,1,40
213,0,11,2,57,0,0,60
214,0,5,1,34,0,1,13
215,0,2,3,20,1,0,11
216,0,14,1,24,0,1,17
217,1,1,3,22,0,1,91
218,1,9,2,44,1,0,99
219,1,10,3,53,0,0,48
220,1,10,2,51,0,1,51
221,1,10,1,60,0,0,16
222,1,9,3,45,1,0,72
223,0,16,1,54,0,0,57
224,1,15,2,30,1,1,34
225,0,20,2,55,0,0,37
226,1,7,2,20,1,1,15
227,0,16,1,52,1,0,57
228,1,14,2,26,0,0,1
229,0,2,1,54,1,1,30
230,0,2,3,43,0,1,4
231,1,3,2,53,0,1,5
232,0,14,2,60,0,0,61
233,0,20,1,36,0,1,30
234,1,6,2,49,0,0,73
235,0,8,1,28,0,0,11
236,0,5,3,41,1,0,58
237,0,11,1,27,1,0,53
238,0,14,2,24,1,0,93
239,1,8,2,53,1,1,28
240,0,16,3,51,0,0,11
241,0,15,2,59,0,1,19
242,1,19,1,30,1,1,96
243,0,16,1,51,0,0,57
244,1,11,2,48,0,1,55
245,0,13,1,59,0,1,78
246,0,6,2,43,1,0,34
247,0,15,1,52,1,1,16
248,1,4,1,46,0,0,41
249,1,16,2,21,0,1,95
250,1,11,2,47,1,1,75
251,0,8,1,22,1,1,66
252,0,10,1,25,0,0,39
253,0,2,3,22,0,1,58
254,1,4,2,26,1,0,70
255,1,16,3,58,1,1,95
256,0,15,2,38,0,0,79
257,0,16,3,32,0,1,47
258,0,9,2,24,0,1,4
259,0,13,3,56,0,1,95
260,0,7,2,53,1,1,10
261,1,2,3,28,0,0,97
262,1,1,1,20,0,0,38
263,1,12,3,38,0,1,99
264,0,11,1,20,0,1,14
265,1,9,1,38,0,1,44
266,0,18,1,59,1,1,39
267,1,11,2,30,1,1,97
268,0,20,1,33,0,1,75
269,1,3,2,57,1,1,27
270,1,19,2,39,1,0,61
271,1,11,2,33,0,1,14
272,0,2,1,32,1,1,18
273,0,16,2,48,0,1,58
274,0,19,3,25,1,1,28
275,0,9,1,35,0,1,37
276,1,6,2,29,0,0,37
277,0,3,3,45,0,0,28
278,1,15,3,59,1,1,61
279,1,5,2,53,1,1,69
280,1,16,2,41,0,0,33
281,0,1,3,40,1,0,79
282,1,13,2,28,0,0,59
283,0,9,3,46,1,1,51
284,1,17,3,49,1,1,49
285,0,6,3,54,1,0,64
286,1,1,1,30,1,1,15
287,1,11,1,21,1,0,67
288,1,4,1,43,1,0,5
289,0,16,1,44,0,0,28
290,1,12,2,34,0,0,27
291,1,6,1,36,1,0,90
292,0,12,1,55,1,0,48
293,0,3,3,53,1,0,78
294,0,1,3,50,1,1,53
295,1,6,3,47,1,0,17
296,0,10,2,34,1,1,12
297,1,14,3,58,1,1,35
298,0,20,3,36,1,1,56
299,0,2,2,40,0,0,65
300,1,20,2,22,0,0,81
