room_id,room_description,bldg_id
1,Uraeginthus granatina,64
2,Dasyurus maculatus,125
3,Phascogale tapoatafa,159
4,Dasyurus maculatus,11
5,Hymenolaimus malacorhynchus,6
6,Carduelis uropygialis,112
7,unavailable,123
8,Amblyrhynchus cristatus,35
9,Hystrix cristata,81
10,Graspus graspus,40
11,Nasua nasua,105
12,Ardea cinerea,35
13,Vulpes vulpes,188
14,Loris tardigratus,172
15,Sarkidornis melanotos,115
16,Spermophilus richardsonii,55
17,Crotalus adamanteus,102
18,Paroaria gularis,21
19,Coluber constrictor,197
20,Paroaria gularis,176
21,Paradoxurus hermaphroditus,146
22,Lycaon pictus,64
23,Ceryle rudis,8
24,Canis mesomelas,102
25,Tayassu tajacu,172
26,Papio cynocephalus,51
27,Cynictis penicillata,56
28,Chionis alba,189
29,Helogale undulata,82
30,Gazella granti,65
31,Canis lupus,110
32,Trichosurus vulpecula,108
33,Capra ibex,141
34,Ephippiorhynchus mycteria,24
35,Meles meles,85
36,Dicrostonyx groenlandicus,139
37,Cereopsis novaehollandiae,200
38,Pseudalopex gymnocercus,62
39,Bucorvus leadbeateri,95
40,Fregata magnificans,49
41,Merops nubicus,132
42,Phylurus milli,182
43,Cacatua tenuirostris,144
44,Cereopsis novaehollandiae,17
45,Irania gutteralis,139
46,Macropus robustus,164
47,Castor fiber,149
48,Ratufa indica,18
49,Damaliscus dorcas,25
50,Nectarinia chalybea,97
51,Cervus elaphus,112
52,Ammospermophilus nelsoni,128
53,Bubalus arnee,148
54,Tayassu tajacu,142
55,Bubo virginianus,164
56,Pseudocheirus peregrinus,157
57,Anthropoides paradisea,77
58,Phoeniconaias minor,155
59,Tauraco porphyrelophus,25
60,Sylvilagus floridanus,79
61,Eremophila alpestris,38
62,Cervus canadensis,98
63,Tadorna tadorna,184
64,Epicrates cenchria maurus,152
65,Helogale undulata,32
66,Tamiasciurus hudsonicus,191
67,Actophilornis africanus,158
68,Macropus eugenii,15
69,Dasypus novemcinctus,2
70,Nectarinia chalybea,159
71,Eolophus roseicapillus,35
72,Leipoa ocellata,177
73,Canis lupus,123
74,unavailable,155
75,Castor canadensis,188
76,Pycnonotus barbatus,65
77,Haliaetus leucogaster,28
78,Otaria flavescens,55
79,Suricata suricatta,128
80,Felis pardalis,45
81,Bassariscus astutus,39
82,Grus canadensis,21
83,Canis lupus baileyi,115
84,Varanus sp.,120
85,Loris tardigratus,41
86,Sauromalus obesus,68
87,Chlamydosaurus kingii,163
88,Choloepus hoffmani,180
89,Eumetopias jubatus,86
90,Equus burchelli,101
91,Centrocercus urophasianus,111
92,Paraxerus cepapi,59
93,Bubalus arnee,179
94,Chionis alba,185
95,Varanus salvator,60
96,Cracticus nigroagularis,154
97,Pytilia melba,39
98,Bettongia penicillata,148
99,Vulpes chama,167
100,Petaurus breviceps,40
