model_id,cpu,ram,os,hd_size,virtual,manuf_id
2441,1,1,Propranolol Hydrochloride,1,false,1
3957,2,2,FLEBEAUTE COLLAGENIC TWO WAY CAKE,2,true,2
1457,3,3,VITALUMIERE AQUA,3,true,3
1836,4,4,omeprazole,4,true,4
2968,5,5,Celadrin,5,true,5
1633,6,6,"Pollens - Weeds and Garden Plants, Short Ragweed, Ambrosia artemisiifolia",6,false,6
1281,7,7,Warts - Moles - Skin Tags,7,true,7
3756,8,8,Canary Grass,8,true,8
1870,9,9,Lysol,9,false,9
3500,10,10,La Roche Posay Redermic plus UV,10,true,10
2056,11,11,up and up ibuprofen,11,false,11
1486,12,12,NEOMYCIN and POLYMYXIN B SULFATES and HYDROCORTISONE,12,false,12
1573,13,13,Bio Centaury,13,false,13
1803,14,14,Exelon,14,false,14
1497,15,15,Equate Tussin DM,15,true,15
3780,16,16,PureFe Plus,16,true,16
3646,17,17,Nifedipine,17,true,17
1463,18,18,Levofloxacin,18,true,18
1442,19,19,Sumatriptan Succinate,19,true,19
1234,20,20,Opana,20,false,20
1414,21,21,NEXIUM,21,true,21
2321,22,22,Maalox,22,false,22
2297,23,23,Ropinirole Hydrochloride,23,false,23
3182,24,24,Olay Total Effects Feather Weight Moisturizer,24,true,24
3908,25,25,Metoprolol,25,false,25
2652,26,26,Donepezil Hydrochloride,26,false,26
4000,27,27,Doxycycline,27,false,27
1274,28,28,Methylergonovine Maleate,28,false,28
3528,29,29,Hydrochlorothiazide,29,true,29
2368,30,30,No Foundation Foundation No.2 Light to Medium,30,true,30
3782,31,31,PCXX NEUTRAL GEL VANILLA ORANGE,31,false,31
2319,32,32,PAXIL,32,false,32
2864,33,33,Mulberry Mixture,33,false,33
1246,34,34,NEXIUM,34,true,34
2191,35,35,Infants Dye-Free Ibuprofen,35,false,35
1525,36,36,FERROUS SULFATE,36,true,36
3040,37,37,Dog Fennel,37,false,37
1710,38,38,Antacid Antigas,38,false,38
3450,39,39,Neo-Synephrine Cold and Sinus,39,true,39
2217,40,40,Ipratropium Bromide,40,false,40
1353,41,41,AGARICUS PANTHERINUS,41,false,41
1996,42,42,Citalopram,42,false,42
2271,43,43,LBEL MAXIMUM COMFORT AND LONG-LASTING FOUNDATION SPF 10,43,true,43
2284,44,44,PHENTERMINE HYDROCHLORIDE,44,true,44
3798,45,45,Dr. Jart Shimmering Beauty Balm 01 Light - Medium,45,false,45
3324,46,46,Loperamide Hydrochloride,46,true,46
3351,47,47,Tekturna HCT,47,true,47
3922,48,48,Clearlax,48,false,48
3841,49,49,SHOPKO HYDROCORTISONE,49,true,49
3250,50,50,Neutrogena Men Triple Protect Face,50,true,50
2145,51,51,CRESTOR,51,false,51
3995,52,52,Canary Grass,52,false,52
2224,53,53,Medique Diotame,53,false,53
3283,54,54,Ondansetron Hydrochloride,54,true,54
3736,55,55,HurriCaine,55,true,55
3604,56,56,NEOSPORIN G.U.,56,false,56
1665,57,57,GOOD NEIGHBOR PHARMACY FIRST AID Contains 202 PIECES,57,false,57
1346,58,58,Dermisa,58,false,58
2837,59,59,Arroyo Willow,59,false,59
3104,60,60,Baby Nighttime Tiny Cold,60,false,60
3398,61,61,GABAPENTIN,61,false,61
3341,62,62,Hydrocortisone Acetate and Pramoxine Hydrochloride,62,true,62
1615,63,63,HYDROCODONE BITARTRATE AND ACETAMINOPHEN,63,false,63
3966,64,64,Alprazolam,64,false,64
1592,65,65,UNNAPLAST with CALAMINE,65,true,65
1999,66,66,Herbon Glacial Mint,66,false,66
2897,67,67,Care One anti diarrheal,67,false,67
2145,68,68,doxycycline hyclate,68,true,68
3349,69,69,Levetiracetam,69,false,69
1628,70,70,Methotrexate,70,true,70
2305,71,71,GMC Medical,71,true,71
2424,72,72,healthy accents nighttime,72,false,72
3363,73,73,Hydrochlorothiazide,73,false,73
3910,74,74,CYMBALTA,74,false,74
3438,75,75,CLADOSPORIUM FULVUM,75,false,75
2696,76,76,Enoxaparin Sodium,76,true,76
2387,77,77,Warfarin Sodium,77,true,77
3158,78,78,Severe Cold Relief PE,78,true,78
1383,79,79,Levothyroxine Sodium,79,false,79
3784,80,80,Furosemide,80,true,80
1575,81,81,Nitrogen,81,true,81
1594,82,82,XGEVA,82,true,82
2939,83,83,Metaxalone,83,false,83
2581,84,84,HORMODENDRUM CLADOSPORIUM CLADOSPORIOIDES,84,false,84
2570,85,85,Oxcarbazepine,85,false,85
1404,86,86,Crest Complete Multi-Benefit,86,false,86
3531,87,87,Amoxicillin,87,false,87
3056,88,88,INFLUENZINUM,88,false,88
3415,89,89,Hydrocodone Bitartrate and Acetaminophen,89,true,89
3096,90,90,Bluefish,90,true,90
2380,91,91,Neutrogena Nourishing Long Wear Makeup Tone Correcting Complex Sunscreen Broad Spectrum SPF20,91,false,91
2799,92,92,"Standardized Grass Pollen, Bermuda Grass",92,true,92
3086,93,93,LEVOTHYROXINE SODIUM,93,false,93
1443,94,94,Oxybutynin Chloride,94,true,94
2196,95,95,CETIRIZINE HYDROLORIDE Allergy,95,false,95
3837,96,96,Stachybotrys,96,true,96
1467,97,97,EXCEDRIN,97,true,97
3358,98,98,Carbamazepine,98,false,98
1668,99,99,Lomustine,99,true,99
1214,100,100,Ultram,100,false,100
